,Name,Count
1,Annapurna Pictures ,2
2, Illumination Entertainment,2
3,Buckeye Pictures ,2
4,Dickhouse Productions ,1
5, STX Entertainment,1
6,Scott Rudin Productions ,1
7,Apatow Productions ,2
8, Black Label Media,4
9, New Line Cinema,1
10,Constantin Film International ,1
11,Tyler Perry Company ,2
12, Clinica Estetico,2
13, Babieka,2
14, Canal+,3
15,Gramercy Pictures (I) ,1
16,Alebrije Cine y Video ,1
17,Touchstone Pictures ,3
18, DreamWorks Animation,3
19,Ghost House Pictures ,3
20,EuropaCorp ,1
21, Alcon Entertainment,2
22,TriStar Pictures ,2
23,Total Recall ,1
24, EuropaCorp,2
25, Roth Films,1
26, FilmDistrict ,2
27,Aggregate Films ,2
28, Gramercy Pictures (I),1
29, Prime Entertainment Group,3
30, Origin Pictures,1
31,Relativity Media ,1
32,Thunder Road Pictures ,1
33,Bold Films ,2
34,Overbrook Entertainment ,3
35,Callahan Filmworks ,2
36, Cantillon Company,2
37, Regency Enterprises,3
38,Broken Road Productions ,1
39, Marcy Media,2
40,Columbia Pictures ,1
41,Alliance Films ,1
42,Walt Disney Pictures,3
43, Chernin Entertainment,3
44, Warner Bros. Pictures,2
45,21 Laps Entertainment ,2
46,3 Arts Entertainment ,1
47,Fox 2000 Pictures ,1
48, Bluegrass Films ,2
49, Escape Artists,2
50,Reel FX Creative Studios ,2
51,1984 Private Defense Contractors ,2
52, B24,2
53, FaithStep Films,1
54,Prana Animation Studios ,1
55, Marvel Studios,1
56, Cube Vision,1
57, Kramer & Sigman Films,2
58,Lakeshore Entertainment ,1
59,Twentieth Century Fox Film Corporation ,1
60,Mediaset Espaa ,1
61, Screen Gems,2
62, Amblin Entertainment,1
63, Color Force,2
64, Metro-Goldwyn-Mayer (MGM),3
65,One Race Productions ,1
66, Good Universe,3
67,Summit Entertainment ,1
68,H2F Entertainment ,1
69, BlackWhite,2
70,Paramount Pictures,1
71, BenderSpink,3
72,CBS Films ,1
73,Minnesota Logging Company ,1
74,Great Ape Productions ,1
75,Asis Productions ,1
76, Wildgaze Films,3
77, Circle of Confusion,1
78,DiNovi Pictures ,4
79, Block / Hanson,2
80, Black Bear Pictures,4
81,Chernin Entertainment ,1
82,Gulfstream Pictures ,2
83,Prototype ,2
84,Codeblack Entertainment ,1
85,New Regency Pictures ,1
86, Apatow Productions,2
87, Focus Features,1
88, Lstar Capital,1
89, 3 Arts Entertainment,3
90, Lucasfilm,1
91, Bold Films,1
92,Indian Paintbrush ,3
93,Metro-Goldwyn-Mayer (MGM) ,1
94, Double Feature Films,2
95,Iron Horse Entertainment (II) ,2
96,Marvel Studios ,1
97, Lucamar Productions,2
98,BenderSpink ,2
99,IFC Productions ,1
100,Animal Logic ,2
101, Summit Entertainment,3
102, CBS Films,1
103,Imagine Entertainment ,2
104,Eon Productions ,1
105, Lionsgate ,1
106, Anonymous Content,1
107, Gary Sanchez Productions,3
108, Cross Creek Pictures,3
109,Offspring Entertainment ,4
110, StudioCanal,1
111, Rocklin \ Faust,2
112, Blinding Edge Pictures,3
113, Fox 2000 Pictures,1
114, Gulfstream Pictures ,2
115,Escape Artists ,2
116, Insurge Pictures,2
117,New Line Cinema ,3
118,Focus Features ,1
119, Walt Disney Pictures ,3
120,Regency Enterprises ,2
121,Four Seasons Partnership ,1
122,Monsterfoot Productions ,2
123,Laika Entertainment ,2
124,Blue Yonder Films ,1
125,Universal Pictures ,1
126,Automatik Entertainment ,1
127,Cloud Atlas Productions ,1
128, Lakeshore Entertainment,1
129,Affirm Film S,2
130, Allison Shearmur Productions,1
131,Abraham Productions ,2
132,Amblin Entertainment ,2
133, Gotham Group,1
134, Route One Films,1
135, Columbia Pictures,1
136,Cross Creek Pictures ,2
137, Village Roadshow Pictures,1
138,Universal Pictures,1
139,Weinstein Company ,3
140,Ixtlan ,1
141, Sony Pictures Entertainment,1
142,Paramount Pictures ,1
143, Genre Films,1
144,DreamWorks Animation ,1
145, Screen Gems ,1
146,Treehouse Pictures ,1
147,AI-Film ,2
148, TriStar Pictures,1
149, Brownstone Productions,2
150,Fox Searchlight Pictures ,2
151, Twentieth Century Fox Film Corporation,3
152, Working Title Films,1
153, Alliance Films,2
154,Chockstone Pictures ,3
155, Little Stranger,2
156,Green Hat Films ,2
157,Dimension Films ,1
158, Plan B Entertainment,1
159,Walt Disney Pictures ,3
160, Paramount Pictures,3
161,Truth Entertainment (II) ,2
162, Bazelevs Production,1
163, Gravier Productions ,1
164,Working Title Films ,1
165,Pure Flix Productions ,1
166,Film 44 ,2
167, Weinstein Company ,3
168, Waverly Films,1
169,Hearst Entertainment Productions ,1
170,Fulwell 73 ,1
171,Millennium Films ,1
172, Universal Pictures,4
173, Red Wagon Entertainment,1
174, Mayhem Pictures,1
175,Screen Gems ,1
176,Exclusive Media Group ,1
177,Endgame Entertainment ,1
178,Brownstone Productions,1
179,Obama's America Foundation ,1
180,Alcon Entertainment ,1
181, Blumhouse Productions,1
182,Lionsgate ,3
183,Cloud Eight Films ,2
184, Walt Disney Pictures,3
185, Legendary Pictures,3
